{
  "profiles": {
    "Viselica": {
      "commandName": "Project",
      "workingDirectory": "C:\\Users\\zakhar\\Documents\\Виселица"
    },
    "Профиль 1": {
      "commandName": "Executable"
    }
  }
}